…
#### Relevel

You can manually reorder factor levels


```r
clean_df %>% 
  mutate(race_f = fct_relevel(race_f, "white", "black", "latinx", "other"))
```

```
## # A tibble: 100 × 21
##       v1    id  educ   age sex    race   married income_1 income_2 depression_1
##    <int> <int> <int> <int> <chr>  <chr>    <int>    <int>    <int>        <int>
##  1     1     1    14    58 female other        0    42504    56418           23
##  2     2     2    15    32 male   black        0    45341    59810           20
##  3     3     3    23    47 male   other        0    69261    92139           16
##  4     4     4    14    35 female other        1    41654    56264           14
##  5     5     5    22    51 male   white        0    66149    88635           10
##  6     6     6    15    73 male   white        1    46009    59918           14
##  7     7     7    23    46 male   latinx       1    68791    91662           13
##  8     8     8    21    66 female white        1    62362    83720            6
##  9     9     9    21    38 female other        0    62716    84363           20
## 10    10    10    20    53 female white        1    60309    80255           11
## # … with 90 more rows, and 11 more variables: depression_2 <int>, anx_1 <int>,
## #   anx_2 <int>, smoking <chr>, race_f <fct>, smoking_f <fct>, sex_f <fct>,
## #   married_f <fct>, income_cat <fct>, dep_v1 <dbl>, dep_v2 <dbl>
```

#### Reorder

Reorder a factor by its levels' frequency


```r
clean_df %>% 
  mutate(race_f = fct_infreq(race_f))
```

```
## # A tibble: 100 × 21
##       v1    id  educ   age sex    race   married income_1 income_2 depression_1
##    <int> <int> <int> <int> <chr>  <chr>    <int>    <int>    <int>        <int>
##  1     1     1    14    58 female other        0    42504    56418           23
##  2     2     2    15    32 male   black        0    45341    59810           20
##  3     3     3    23    47 male   other        0    69261    92139           16
##  4     4     4    14    35 female other        1    41654    56264           14
##  5     5     5    22    51 male   white        0    66149    88635           10
##  6     6     6    15    73 male   white        1    46009    59918           14
##  7     7     7    23    46 male   latinx       1    68791    91662           13
##  8     8     8    21    66 female white        1    62362    83720            6
##  9     9     9    21    38 female other        0    62716    84363           20
## 10    10    10    20    53 female white        1    60309    80255           11
## # … with 90 more rows, and 11 more variables: depression_2 <int>, anx_1 <int>,
## #   anx_2 <int>, smoking <chr>, race_f <fct>, smoking_f <fct>, sex_f <fct>,
## #   married_f <fct>, income_cat <fct>, dep_v1 <dbl>, dep_v2 <dbl>
```

Reorder a factor by a numeric variable


```r
clean_df %>% 
  mutate(race_f = fct_reorder(race_f, income_1))
```

```
## # A tibble: 100 × 21
##       v1    id  educ   age sex    race   married income_1 income_2 depression_1
##    <int> <int> <int> <int> <chr>  <chr>    <int>    <int>    <int>        <int>
##  1     1     1    14    58 female other        0    42504    56418           23
##  2     2     2    15    32 male   black        0    45341    59810           20
##  3     3     3    23    47 male   other        0    69261    92139           16
##  4     4     4    14    35 female other        1    41654    56264           14
##  5     5     5    22    51 male   white        0    66149    88635           10
##  6     6     6    15    73 male   white        1    46009    59918           14
##  7     7     7    23    46 male   latinx       1    68791    91662           13
##  8     8     8    21    66 female white        1    62362    83720            6
##  9     9     9    21    38 female other        0    62716    84363           20
## 10    10    10    20    53 female white        1    60309    80255           11
## # … with 90 more rows, and 11 more variables: depression_2 <int>, anx_1 <int>,
## #   anx_2 <int>, smoking <chr>, race_f <fct>, smoking_f <fct>, sex_f <fct>,
## #   married_f <fct>, income_cat <fct>, dep_v1 <dbl>, dep_v2 <dbl>
```

#### Lump

When you have a factor with too many levels, you can lump all of the infrequent ones into one factor, "other". You can specify how many levels you want to include. the argument "n" is the number of levels you want to keep, besides the "other" category that will be made from the lump function. You can also include the argument other_level = "" if you would like to change the name from other to something more specific.


```r
clean_df %>% 
  mutate(race_f = fct_lump(race_f, n = 2))
```

```
## # A tibble: 100 × 21
##       v1    id  educ   age sex    race   married income_1 income_2 depression_1
##    <int> <int> <int> <int> <chr>  <chr>    <int>    <int>    <int>        <int>
##  1     1     1    14    58 female other        0    42504    56418           23
##  2     2     2    15    32 male   black        0    45341    59810           20
##  3     3     3    23    47 male   other        0    69261    92139           16
##  4     4     4    14    35 female other        1    41654    56264           14
##  5     5     5    22    51 male   white        0    66149    88635           10
##  6     6     6    15    73 male   white        1    46009    59918           14
##  7     7     7    23    46 male   latinx       1    68791    91662           13
##  8     8     8    21    66 female white        1    62362    83720            6
##  9     9     9    21    38 female other        0    62716    84363           20
## 10    10    10    20    53 female white        1    60309    80255           11
## # … with 90 more rows, and 11 more variables: depression_2 <int>, anx_1 <int>,
## #   anx_2 <int>, smoking <chr>, race_f <fct>, smoking_f <fct>, sex_f <fct>,
## #   married_f <fct>, income_cat <fct>, dep_v1 <dbl>, dep_v2 <dbl>
```
…
